// Jest Snapshot v1, https://goo.gl/fbAQLP

exports[`StatefullComponent Basic tests should renders correctly 1`] = `
<StatefullComponent>
  <View
    style={
      Object {
        "alignItems": "center",
        "flex": 1,
        "justifyContent": "space-around",
      }
    }
  >
    <View
      style={
        Object {
          "alignItems": "center",
          "flex": 1,
          "justifyContent": "space-around",
        }
      }
    >
      <View>
        <View>
          <Text
            style={
              Object {
                "fontSize": 24,
                "marginVertical": 16,
              }
            }
            testID="statefullComponentDogCounter"
          >
            <Text
              style={
                Object {
                  "fontSize": 24,
                  "marginVertical": 16,
                }
              }
              testID="statefullComponentDogCounter"
            >
              How many dogs enough? 0
            </Text>
          </Text>
          <View
            style={
              Object {
                "flexDirection": "row",
                "justifyContent": "space-around",
              }
            }
          >
            <View
              style={
                Object {
                  "flexDirection": "row",
                  "justifyContent": "space-around",
                }
              }
            >
              <ForwardRef
                onPress={[Function]}
                testID="statefullComponentDecrementBtn"
              >
                <TouchableOpacity
                  hostRef={null}
                  onPress={[Function]}
                  testID="statefullComponentDecrementBtn"
                >
                  <ForwardRef(AnimatedComponentWrapper)
                    accessible={true}
                    focusable={true}
                    onClick={[Function]}
                    onResponderGrant={[Function]}
                    onResponderMove={[Function]}
                    onResponderRelease={[Function]}
                    onResponderTerminate={[Function]}
                    onResponderTerminationRequest={[Function]}
                    onStartShouldSetResponder={[Function]}
                    style={
                      Array [
                        undefined,
                        Object {
                          "opacity": 1,
                        },
                      ]
                    }
                    testID="statefullComponentDecrementBtn"
                  >
                    <AnimatedComponent
                      accessible={true}
                      focusable={true}
                      onClick={[Function]}
                      onResponderGrant={[Function]}
                      onResponderMove={[Function]}
                      onResponderRelease={[Function]}
                      onResponderTerminate={[Function]}
                      onResponderTerminationRequest={[Function]}
                      onStartShouldSetResponder={[Function]}
                      style={
                        Array [
                          undefined,
                          Object {
                            "opacity": 1,
                          },
                        ]
                      }
                      testID="statefullComponentDecrementBtn"
                    >
                      <View
                        accessible={true}
                        focusable={true}
                        onClick={[Function]}
                        onResponderGrant={[Function]}
                        onResponderMove={[Function]}
                        onResponderRelease={[Function]}
                        onResponderTerminate={[Function]}
                        onResponderTerminationRequest={[Function]}
                        onStartShouldSetResponder={[Function]}
                        style={
                          Object {
                            "opacity": 1,
                          }
                        }
                        testID="statefullComponentDecrementBtn"
                      >
                        <View
                          accessible={true}
                          focusable={true}
                          onClick={[Function]}
                          onResponderGrant={[Function]}
                          onResponderMove={[Function]}
                          onResponderRelease={[Function]}
                          onResponderTerminate={[Function]}
                          onResponderTerminationRequest={[Function]}
                          onStartShouldSetResponder={[Function]}
                          style={
                            Object {
                              "opacity": 1,
                            }
                          }
                          testID="statefullComponentDecrementBtn"
                        >
                          <Text>
                            <Text>
                              LESS
                            </Text>
                          </Text>
                          <PressabilityDebugView
                            color="cyan"
                          />
                        </View>
                      </View>
                    </AnimatedComponent>
                  </ForwardRef(AnimatedComponentWrapper)>
                </TouchableOpacity>
              </ForwardRef>
              <ForwardRef
                onPress={[Function]}
                testID="statefullComponentIncrementBtn"
              >
                <TouchableOpacity
                  hostRef={null}
                  onPress={[Function]}
                  testID="statefullComponentIncrementBtn"
                >
                  <ForwardRef(AnimatedComponentWrapper)
                    accessible={true}
                    focusable={true}
                    onClick={[Function]}
                    onResponderGrant={[Function]}
                    onResponderMove={[Function]}
                    onResponderRelease={[Function]}
                    onResponderTerminate={[Function]}
                    onResponderTerminationRequest={[Function]}
                    onStartShouldSetResponder={[Function]}
                    style={
                      Array [
                        undefined,
                        Object {
                          "opacity": 1,
                        },
                      ]
                    }
                    testID="statefullComponentIncrementBtn"
                  >
                    <AnimatedComponent
                      accessible={true}
                      focusable={true}
                      onClick={[Function]}
                      onResponderGrant={[Function]}
                      onResponderMove={[Function]}
                      onResponderRelease={[Function]}
                      onResponderTerminate={[Function]}
                      onResponderTerminationRequest={[Function]}
                      onStartShouldSetResponder={[Function]}
                      style={
                        Array [
                          undefined,
                          Object {
                            "opacity": 1,
                          },
                        ]
                      }
                      testID="statefullComponentIncrementBtn"
                    >
                      <View
                        accessible={true}
                        focusable={true}
                        onClick={[Function]}
                        onResponderGrant={[Function]}
                        onResponderMove={[Function]}
                        onResponderRelease={[Function]}
                        onResponderTerminate={[Function]}
                        onResponderTerminationRequest={[Function]}
                        onStartShouldSetResponder={[Function]}
                        style={
                          Object {
                            "opacity": 1,
                          }
                        }
                        testID="statefullComponentIncrementBtn"
                      >
                        <View
                          accessible={true}
                          focusable={true}
                          onClick={[Function]}
                          onResponderGrant={[Function]}
                          onResponderMove={[Function]}
                          onResponderRelease={[Function]}
                          onResponderTerminate={[Function]}
                          onResponderTerminationRequest={[Function]}
                          onStartShouldSetResponder={[Function]}
                          style={
                            Object {
                              "opacity": 1,
                            }
                          }
                          testID="statefullComponentIncrementBtn"
                        >
                          <Text>
                            <Text>
                              MORE
                            </Text>
                          </Text>
                          <PressabilityDebugView
                            color="cyan"
                          />
                        </View>
                      </View>
                    </AnimatedComponent>
                  </ForwardRef(AnimatedComponentWrapper)>
                </TouchableOpacity>
              </ForwardRef>
            </View>
          </View>
        </View>
      </View>
      <View
        style={
          Object {
            "alignItems": "center",
          }
        }
      >
        <View
          style={
            Object {
              "alignItems": "center",
            }
          }
        >
          <Text>
            <Text>
              Let the dogs out?
            </Text>
          </Text>
          <ForwardRef
            onPress={[Function]}
            style={
              Object {
                "backgroundColor": "#f06292",
                "borderRadius": 4,
                "marginTop": 8,
                "padding": 20,
              }
            }
            testID="statefullComponentBtn"
          >
            <TouchableOpacity
              hostRef={null}
              onPress={[Function]}
              style={
                Object {
                  "backgroundColor": "#f06292",
                  "borderRadius": 4,
                  "marginTop": 8,
                  "padding": 20,
                }
              }
              testID="statefullComponentBtn"
            >
              <ForwardRef(AnimatedComponentWrapper)
                accessible={true}
                focusable={true}
                onClick={[Function]}
                onResponderGrant={[Function]}
                onResponderMove={[Function]}
                onResponderRelease={[Function]}
                onResponderTerminate={[Function]}
                onResponderTerminationRequest={[Function]}
                onStartShouldSetResponder={[Function]}
                style={
                  Array [
                    Object {
                      "backgroundColor": "#f06292",
                      "borderRadius": 4,
                      "marginTop": 8,
                      "padding": 20,
                    },
                    Object {
                      "opacity": 1,
                    },
                  ]
                }
                testID="statefullComponentBtn"
              >
                <AnimatedComponent
                  accessible={true}
                  focusable={true}
                  onClick={[Function]}
                  onResponderGrant={[Function]}
                  onResponderMove={[Function]}
                  onResponderRelease={[Function]}
                  onResponderTerminate={[Function]}
                  onResponderTerminationRequest={[Function]}
                  onStartShouldSetResponder={[Function]}
                  style={
                    Array [
                      Object {
                        "backgroundColor": "#f06292",
                        "borderRadius": 4,
                        "marginTop": 8,
                        "padding": 20,
                      },
                      Object {
                        "opacity": 1,
                      },
                    ]
                  }
                  testID="statefullComponentBtn"
                >
                  <View
                    accessible={true}
                    focusable={true}
                    onClick={[Function]}
                    onResponderGrant={[Function]}
                    onResponderMove={[Function]}
                    onResponderRelease={[Function]}
                    onResponderTerminate={[Function]}
                    onResponderTerminationRequest={[Function]}
                    onStartShouldSetResponder={[Function]}
                    style={
                      Object {
                        "backgroundColor": "#f06292",
                        "borderRadius": 4,
                        "marginTop": 8,
                        "opacity": 1,
                        "padding": 20,
                      }
                    }
                    testID="statefullComponentBtn"
                  >
                    <View
                      accessible={true}
                      focusable={true}
                      onClick={[Function]}
                      onResponderGrant={[Function]}
                      onResponderMove={[Function]}
                      onResponderRelease={[Function]}
                      onResponderTerminate={[Function]}
                      onResponderTerminationRequest={[Function]}
                      onStartShouldSetResponder={[Function]}
                      style={
                        Object {
                          "backgroundColor": "#f06292",
                          "borderRadius": 4,
                          "marginTop": 8,
                          "opacity": 1,
                          "padding": 20,
                        }
                      }
                      testID="statefullComponentBtn"
                    >
                      <Text>
                        <Text>
                          OH YES
                        </Text>
                      </Text>
                      <PressabilityDebugView
                        color="cyan"
                      />
                    </View>
                  </View>
                </AnimatedComponent>
              </ForwardRef(AnimatedComponentWrapper)>
            </TouchableOpacity>
          </ForwardRef>
        </View>
      </View>
    </View>
  </View>
</StatefullComponent>
`;
